{"info": {"count":1,"pages":1,"next":"https://rickandmortyapi.com/api/character/?page=2","prev":null}, "results":
 	[{"id":1,
	"Titulo":"Paper Towns",
	"Autor":"Jonh Green",
	"Genero":"Libros para adolescentes",
	"Precio":"100",
	"Imagen":"/paperTown.jfif",
	"Creado":"2020-07-21T11:10:42.250Z"}]
